"0","# includes"
"0","library(dplyr)"
"0","library(ggplot2)"
"0","library(Lahman)"
"0","library(lubridate)"
"0","library(MASS)"
"0","# load data"
"0","dfWAR <- read.csv(""deltaWAR2.txt"")"
"0","dfWAR <- filter(dfWAR, !is.na(deltaWARperGame)) %>%"
"0","  dplyr::select(player_ID, year_ID, age, WAR, G, salary, lastWAR, lastG, deltaWARperGame) %>%"
"0","  filter(year_ID >= 1941) %>%"
"0","  filter(G > 100)"
