"0","# grab stats grouped by the age of the player in the current season"
"0","statistics <- stats_mini %>% group_by(seasonAge) %>% summarize(N= n(), mean= mean(deltaOPS), sd= sd(deltaOPS))"
"0","# filter off the ages for which there are not many samples"
"0","statistics <- statistics %>% filter(N > 100)"
"0","# create space to store distribution vars w/ the number of ages we want"
"0","N_age <- nrow(statistics)"
"0","mu_age <- numeric(N_age)"
"0","var_age <- numeric(N_age)"
"0","# loop over ""ages"""
"0","for (i in 1:N_age) {"
"0","  "
"0","  # grab the age"
"0","  age <- statistics$seasonAge[i]"
"0","  "
"0","  # cut down to the specific age we're about"
"0","  working_group <- stats_mini %>% filter(seasonAge == age)"
"0","  "
"0","  # get the mean and standard deviation for this age"
"0","  distro <- fitdistr(working_group$deltaOPS, ""normal"")"
"0","  "
"0","  # set in the things"
"0","  mu_age[i] <- distro$estimate[""mean""]"
"0","  var_age[i] <- distro$estimate[""sd""]"
"0","  "
"0","}"
